scTrancriptomics in plants
…
```r
write.csv(leaf.markers, file = "Data/leaf_markers.csv")
```

---
#Vizualizing the markers: table

```r
leaf.markers %>% 
    group_by(cluster) %>%
    slice_max(n = 2, order_by = avg_log2FC)
```

```
## # A tibble: 40 x 8
## # Groups:   cluster [20]
##    X              p_val avg_log2FC pct.1 pct.2 p_val_adj cluster gene     
##    <chr>          <dbl>      <dbl> <dbl> <dbl>     <dbl>   <int> <chr>    
##  1 AT5G26000  0               3.31 1     0.194 0               0 AT5G26000
##  2 AT4G37990  0               3.04 0.993 0.247 0               0 AT4G37990
##  3 AT1G29920  0               2.58 1     0.508 0               1 AT1G29920
##  4 AT5G38410  0               2.53 1     0.549 0               1 AT5G38410
##  5 AT5G384201 2.45e-302       3.36 1     0.303 4.74e-298       2 AT5G38420
##  6 AT5G384301 0               3.18 0.995 0.2   0               2 AT5G38430
##  7 AT2G02100  2.35e-145       2.96 0.803 0.26  4.54e-141       3 AT2G02100
##  8 AT3G18280  1.01e-164       2.66 0.375 0.033 1.96e-160       3 AT3G18280
##  9 AT3G11930  0               4.63 0.953 0.057 0               4 AT3G11930
## 10 AT5G023801 2.43e-168       3.78 1     0.761 4.71e-164       4 AT5G02380
## # ... with 30 more rows
```
…
